﻿{
    "_id": "course",
    "_type": "course",
    "title": "Как побудить человека к действию с помощью цели «Конверсии»",
    "displayTitle": "Как побудить человека к действию с помощью цели «Конверсии»",
    "body": "",
    "_buttons": {
        "_submit": {
            "buttonText": "Отправить",
            "ariaLabel": "Нажмите здесь, чтобы отправить ответ."
        },
        "_reset": {
            "buttonText": "Сбросить",
            "ariaLabel": "Нажмите здесь, чтобы сбросить вопрос."
        },
        "_showCorrectAnswer": {
            "buttonText": "Правильный ответ",
            "ariaLabel": "Нажмите здесь, чтобы отобразить правильный ответ."
        },
        "_hideCorrectAnswer": {
            "buttonText": "Мой ответ",
            "ariaLabel": "Нажмите здесь, чтобы отобразить свой ответ."
        },
        "_showFeedback": {
            "buttonText": "Показать комментарий",
            "ariaLabel": "Нажмите здесь, чтобы еще раз отобразить комментарий к ответу."
        },
        "remainingAttemptsText": "осталось попыток",
        "remainingAttemptText": "последняя попытка",
        "disabledAriaLabel": "Кнопка недоступна."
    },
    "_globals": {
        "_components": {
            "_accordion": {
                "ariaRegion": "Этот компонент состоит из нескольких развертываемых панелей с текстом. Выберите заголовки, чтобы отобразить или скрыть соответствующий текст.",
                "instruction": ""
            },
            "_blank": {
                "ariaRegion": "",
                "instruction": ""
            },
            "_gmcq": {
                "ariaRegion": "Этот компонент является вопросом с несколькими вариантами ответа в графическом формате. Выберите вариант, а затем нажмите кнопку «Отправить» ниже.",
                "instruction": ""
            },
            "_graphic": {
                "ariaRegion": "",
                "instruction": ""
            },
            "_hotGraphic": {
                "ariaRegion": "Компонент ниже позволяет выбирать маркеры на изображении. Выберите маркер, чтобы открыть всплывающее окно с изображением и текстом. Чтобы закрыть его, нажмите кнопку «Закрыть».",
                "instruction": ""
            },
            "_matching": {
                "ariaRegion": "Компонент «Вопрос» требует выбрать правильный ответ в раскрывающемся списке ниже. Выберите варианты ответа и нажмите «Отправить».",
                "instruction": ""
            },
            "_mcq": {
                "ariaRegion": "Этот компонент представляет собой вопрос с несколькими вариантами ответа. Выберите вариант, а затем нажмите кнопку «Отправить» ниже",
                "instruction": ""
            },
            "_media": {
                "ariaRegion": "Это мультимедийный компонент, который воспроизводит видео. Нажмите кнопку «Воспроизведение/пауза», чтобы просмотреть видео или прослушать аудио. Вы также можете выбрать ссылку ниже, чтобы посмотреть расшифровку текста.",
                "instruction": ""
            },
            "_narrative": {
                "ariaRegion": "Это галерея изображений с текстом. Для перемещения по тексту воспользуйтесь стрелками вперед и назад.",
                "instruction": ""
            },
            "_slider": {
                "ariaRegion": "Здесь нужно ответить на вопрос, выбрав подходящее значение. Выберите значение и нажмите «Отправить» ниже.",
                "instruction": ""
            },
            "_text": {
                "ariaRegion": "",
                "instruction": ""
            },
            "_textInput": {
                "ariaRegion": "Здесь нужно ввести ответ в соответствующее поле. Ответьте на вопрос и нажмите «Отправить» ниже.",
                "instruction": ""
            }
        },
        "_extensions": {
            "_pageLevelProgress": {
                "pageLevelProgress": "Разделы страницы",
                "pageLevelProgressEnd": "Вы дошли до конца списка разделов страницы.",
                "pageLevelProgressIndicatorBar": "Индикатор прохождения курса. Нажмите здесь, чтобы посмотреть прогресс прохождения курса и выбрать элемент, к которому хотите перейти. Пройдено ",
                "optionalContent": "Дополнительные материалы"
            }
        },
        "_menu": {
            "_boxmenu": {
                "ariaRegion": "Меню",
                "menuItem": "Пункт меню.",
                "menuEnd": "Вы дошли до конца меню."
            }
        },
        "_accessibility": {
            "_accessibilityToggleTextOn": "Включить вспомогательные технологии?",
            "_accessibilityToggleTextOff": "Выключить вспомогательные технологии?",
            "_accessibilityInstructions": {
                "touch": "Инструкции по использованию. Чтобы перейти на следующую страницу, проведите пальцем влево. Чтобы вернуться на предыдущую страницу, проведите пальцем вправо. Дважды коснитесь элемента, чтобы выбрать его. Чтобы перейти в верхнюю часть страницы, проведите двумя пальцами вверх.",
                "notouch": "Инструкции по использованию. Чтобы перейти на следующую страницу, нажмите Tab. Чтобы вернуться на предыдущую страницу, нажмите Shift+Tab. Чтобы выбрать элемент, нажмите Enter. Чтобы перейти в верхнюю часть страницы, нажмите ESC.",
                "ipad": "Инструкции для устройств с сенсорными экранами. Чтобы перейти на следующую страницу, проведите пальцем влево. Чтобы вернуться на предыдущую страницу, проведите пальцем вправо. Дважды коснитесь элемента, чтобы выбрать его. Чтобы перейти в верхнюю часть страницы, проведите двумя пальцами вверх. Инструкции для устройств с клавиатурой. Чтобы перейти на следующую страницу, нажмите клавишу со стрелкой влево. Чтобы вернуться на предыдущую страницу, нажмите клавишу со стрелкой вправо. Чтобы выбрать элемент, одновременно нажмите клавиши со стрелками вверх и вниз."
            },
            "_ariaLabels": {
                "navigation": "Панель навигации по курсу",
                "menuLoaded": "Меню загружено.",
                "menu": "Меню",
                "page": "Страница",
                "pageLoaded": "Страница загружена.",
                "pageEnd": "Вы дошли до конца страницы.",
                "previous": "Назад",
                "navigationBack": "Вернуться",
                "navigationDrawer": "Открыть ресурсы курса.",
                "close": "Закрыть",
                "closeDrawer": "Закрыть панель",
                "closeResources": "Закрыть ресурсы",
                "resourcesEnd": "Вы дошли до конца списка ресурсов.",
                "drawerBack": "Назад к панели",
                "drawer": "Верхняя часть боковой панели",
                "closePopup": "Закрыть всплывающее окно",
                "next": "Далее",
                "done": "Готово",
                "complete": "Завершено",
                "incomplete": "Не завершено",
                "incorrect": "Неправильно",
                "correct": "Правильно",
                "locked": "Заблокировано",
                "accessibilityToggleButton": "Кнопка поможет вам включить или выключить вспомогательные технологии.",
                "feedbackPopUp": "Всплывающее окно открыто.",
                "menuBack": "Вернуться в меню",
                "visited": "Просмотрено"
            }
        }
    },
    "_latestTrackingId": 241,
    "_pageLevelProgress": {
        "_isEnabled": true,
        "_altText": "компонентов на этой странице пройдено."
    },
    "_bookmarking": {
        "_isEnabled": true,
        "_level": "component",
        "title": "Закладки",
        "body": "Хотите продолжить с того места, где вы остановились в прошлый раз?",
        "_buttons": {
            "yes": "Да",
            "no": "Нет"
        }
    },
    "_analytics": {
        "_isEnabled": true
    }
}