{
    "_id": "c-15",
    "_parentId": "b-15",
    "_type": "component",
    "_component": "flipCard",
    "_classes": "",
    "_layout": "full",
    "title": "Flip Card",
    "displayTitle": "Flip Card Component",
    "body": "This is optional body text. Click the image below to reveal the text.",
    "instruction": "",
    "_items": [
        {
            "frontImageSrc": "assets/flip_1.png",
            "frontHeading": "Front Heading",
            "frontListOfOptions": [
                "Front list of options 1",
                "Front list of options 2",
                "Front list of options 3"
            ],
            "backImageSrc": "",
            "backHeading": "To overcome Global Climate Change challenges, it is essential to:",
            "backListOfOptions": [
                "Avail technology no matter how expensive it be, to reduce greenhouse releases.",
                "Persuade the citizens of a nation to get together and work towards a development program.",
                "Follow rules and regulations set by the government to avoid excessive greenhouse emissions."
            ],
            "textShadow":"rgba(0, 0, 0, 0.6) 2px 2px 2px"
        },
        {
            "frontImageSrc": "assets/flip_2.png",
            "frontHeading": "Front Heading",
            "frontListOfOptions": [
                "Front list of options 1",
                "Front list of options 2",
                "Front list of options 3"
            ],
            "backImageSrc": "",
            "backHeading": "To overcome Global Climate Change challenges, it is essential to:",
            "backListOfOptions": [
                "Avail technology no matter how expensive it be, to reduce greenhouse releases.",
                "Persuade the citizens of a nation to get together and work towards a development program.",
                "Follow rules and regulations set by the government to avoid excessive greenhouse emissions."
            ],
            "textShadow":"rgba(0, 0, 0, 0.6) 2px 2px 2px"
        }
    ],
    "_flipType": "singleFlip",
    "_flipTime": 400
}
 